@reboot /home/pi/cron/i2cdisplay.sh 
1 * * * *  /home/pi/cron/getsensor.sh 
20 * * * * /home/pi/cron/getsensor.sh 
40 * * * * /home/pi/cron/getsensor.sh 
2 * * * * /home/pi/cron/archivator.sh 
21 * * * * /home/pi/cron/archivator.sh 
41 * * * * /home/pi/cron/archivator.sh 
